Project 1: Wrangling, Exploration, Visualization
…
# your mutate code
data2 <- data1
data2 <- data2 %>% mutate(day_change = Close - Open)
data2 <- data2 %>% mutate(percent_day_change = ((day_change)/(Open)) * 
    100)

First, I made a copy of data1 and called it data2 in case I mess up the mutate() function. My first mutate function, I calculated the day change by subtracting the closing value with the opening value. However, I realized a better metric for the S&P 500 would be percent day change. So I used mutate again to create this variable.

# your filter code
data2$`Order Quantity`[is.na(data2$`Order Quantity`)] <- 0
data2 %>% filter(`Order Quantity` == "0", percent_day_change < 
    0)

## # A tibble: 61 x 24
##    Date       `Order ID` `Account Group` `Order Quantity` `Order Subtotal`
##    <date>     <chr>      <chr>                      <dbl>            <dbl>
##  1 2021-09-08 114-41723 BrightChild                    0                0
##  2 2021-09-08 114-69823 BrightChild                    0                0
##  3 2021-05-05 111-02249 BrightChild                    0                0
##  4 2021-01-22 111-09908 BrightChild                    0                0
##  5 2021-10-26 <NA>       <NA>                           0               NA
##  6 2021-10-22 <NA>       <NA>                           0               NA
##  7 2021-10-12 <NA>       <NA>                           0               NA
##  8 2021-09-30 <NA>       <NA>                           0               NA
##  9 2021-09-29 <NA>       <NA>                           0               NA
## 10 2021-09-21 <NA>       <NA>                           0               NA
## #  with 51 more rows, and 19 more variables: `Order Tax` <dbl>, `Order Net
## #   Total` <dbl>, `Amazon-Internal Product Category` <chr>, ASIN <chr>,
## #   Title <chr>, UNSPSC <int>, Brand <chr>, Manufacturer <chr>, `Item model
## #   number` <chr>, `Seller Name` <chr>, `Seller State` <chr>, Open <dbl>,
## #   High <dbl>, Low <dbl>, Close <dbl>, `Adj Close**` <dbl>, Volume <dbl>,
## #   day_change <dbl>, percent_day_change <dbl>

Next, I converted all of the NAs for Order Quantity into 0. This is because the days in which I did not place an order, my data had NA for the order quantity. It makes more sense to make this 0. Now I can use the filter function to how many days had a negative percent change in the S&P500 and had 0 Amazon orders. As you can see above, this happened for 61 days. Out of the 209 days that I collected data on, 29.19% of those days were both negative percent change and 0 Amazon orders.

# your select and arrange code
data2 %>% select(`Order Net Total`, `Amazon-Internal Product Category`) %>% 
    arrange(desc(`Order Net Total`))

## # A tibble: 290 x 2
##    `Order Net Total` `Amazon-Internal Product Category`               
##                <dbl> <chr>                                            
##  1              660. Personal Computer                                
##  2              647. Business, Industrial, & Scientific Supplies Basic
##  3              647. Personal Computer                                
##  4              565. Personal Computer                                
##  5              467. Personal Computer                                
##  6              465. Office Product                                   
##  7              429. Personal Computer                                
##  8              425. Personal Computer                                
##  9              425. Personal Computer                                
## 10              382. Personal Computer                                
## #  with 280 more rows

Next, I selected the order net total and amazon internal product category variables to observe its relationship. I arranged the data in descending order of Order Net Total. Now I can compare the order net totals to the Amazon-Internal Product Category to see which product category I spend the most money on individually. From the data above, we can observe that majority of my top 25 most expensive purchases are in the Personal Computer Category.

# your wrangling code
data2 %>% filter(`Order Quantity` > 1) %>% select(`Order Quantity`, 
    `Order Net Total`, `Amazon-Internal Product Category`, `Seller State`) %>% 
    arrange(desc(`Order Net Total`))

## # A tibble: 39 x 4
##    `Order Quantity` `Order Net Total` `Amazon-Internal Product C `Seller State`
##               <dbl>             <dbl> <chr>                       <chr>         
##  1                2             660.  Personal Computer           Guangdong     
##  2                3             647.  Business, Industrial, & Sc guangdong     
##  3                3             647.  Personal Computer           guangdongsheng
##  4                2             425.  Personal Computer           FL            
##  5                2             425.  Personal Computer           FL            
##  6                2             213.  Personal Computer           Washington    
##  7                3             127.  Speakers                    NJ            
##  8                2              95.7 Home Improvement            Washington    
##  9                2              95.7 Home Improvement            <NA>          
## 10                2              87.2 Health and Beauty           GA            
## #  with 29 more rows

In this wrangle, I wanted to see several things. First, I wanted to see where the most expensive items I was buying was coming from. As you can see from the chart above, the top 3 most expensive items I have bought year to date are from Guangdong, China. I also wanted to see what type of items I am buying in quantities higher than 1. From the data above, we can see that personal computer is still the highest price and quantity category. This makes sense because I purchase several laptops a week for my business.

# your summarize/group-by code
data2 %>% group_by(`Amazon-Internal Product Category`) %>% summarize(average_day_change = mean(day_change, 
    na.rm = T), n()) %>% arrange(average_day_change)

## # A tibble: 26 x 3
##    `Amazon-Internal Product Category` average_day_change `n()`
##    <chr>                                           <dbl> <int>
##  1 Grocery                                       -28.1       4
##  2 Digital Video Games                           -20.5       1
##  3 Electronic Gift Card                          -20.5       4
##  4 Home Improvement                              -12.9      10
##  5 Shoes                                         -10.5       6
##  6 Home                                           -7.09      2
##  7 Personal Computer                              -1.93     33
##  8 Speakers                                       -1.40      5
##  9 Musical Instruments                            -0.767     3
## 10 CE                                             -0.660    14
## #  with 16 more rows
…
Here, I used at least 5 unique functions within summarize to gain more insight into my data. One notable analytic is the mean price of items bought in the month of June. This turned out to be $38.67.

# your wrangling code
data2 %>% mutate(Date = str_replace(Date, "2021-", ""))

## # A tibble: 290 x 24
##    Date  `Order ID` `Account Group` `Order Quantity` `Order Subtotal`
##    <chr> <chr>      <chr>                      <dbl>            <dbl>
##  1 10-27 111-59113 BrightChild                    3           120.  
##  2 10-14 112-54522 BrightChild                    2            31.6 
##  3 10-14 112-54522 BrightChild                    2            31.6 
##  4 10-13 114-82326 BrightChild                    1            55.0 
##  5 10-13 114-04930 BrightChild                    2            26.0 
##  6 10-11 114-29492 BrightChild                    2            22.0 
##  7 10-11 114-18237 BrightChild                    1             7.99
##  8 10-11 114-19744 BrightChild                    1           439   
##  9 10-11 113-92777 BrightChild                    2           400.  
## 10 10-11 112-35955 BrightChild                    2            37.2 
## #  with 280 more rows, and 19 more variables: `Order Tax` <dbl>, `Order Net
## #   Total` <dbl>, `Amazon-Internal Product Category` <chr>, ASIN <chr>,
## #   Title <chr>, UNSPSC <int>, Brand <chr>, Manufacturer <chr>, `Item model
## #   number` <chr>, `Seller Name` <chr>, `Seller State` <chr>, Open <dbl>,
## #   High <dbl>, Low <dbl>, Close <dbl>, `Adj Close**` <dbl>, Volume <dbl>,
## #   day_change <dbl>, percent_day_change <dbl>

Here is used a stringr function in order to remove the year from each observation. Since the whole dataset is only purchases year to date, all of them occurred in 2021. Therefore, having the year is irrelevant.

# your wrangling code
per_million <- function(Volume) {
    volume_per_million <- (Volume/1e+06)
    return(volume_per_million)
}
data3 %>% mutate(Volume = per_million(Volume))

## # A tibble: 290 x 26
##     Year Month   Day `Order ID` `Account Group` `Order Quantity`
##    <int> <int> <int> <chr>      <chr>                      <dbl>
##  1  2021    10    27 111-59113 BrightChild                    3
##  2  2021    10    14 112-54522 BrightChild                    2
##  3  2021    10    14 112-54522 BrightChild                    2
##  4  2021    10    13 114-82326 BrightChild                    1
##  5  2021    10    13 114-04930 BrightChild                    2
##  6  2021    10    11 114-29492 BrightChild                    2
##  7  2021    10    11 114-18237 BrightChild                    1
##  8  2021    10    11 114-19744 BrightChild                    1
##  9  2021    10    11 113-92777 BrightChild                    2
## 10  2021    10    11 112-35955 BrightChild                    2
## #  with 280 more rows, and 20 more variables: `Order Subtotal` <dbl>, `Order
## #   Tax` <dbl>, `Order Net Total` <dbl>, `Amazon-Internal Product
## #   Category` <chr>, ASIN <chr>, Title <chr>, UNSPSC <int>, Brand <chr>,
## #   Manufacturer <chr>, `Item model number` <chr>, `Seller Name` <chr>, `Seller
## #   State` <chr>, Open <dbl>, High <dbl>, Low <dbl>, Close <dbl>, `Adj
## #   Close**` <dbl>, Volume <dbl>, day_change <dbl>, percent_day_change <dbl>
…
